{
  "pistolshot": {
    "category": "master",
    "sounds": []
  },
  "sword_des": {
    "category": "master",
    "sounds": []
  },
  "rifleshot": {
    "category": "master",
    "sounds": []
  },
  "hoja_oculta_act": {
    "category": "master",
    "sounds": []
  },
  "hoja_oculta_des": {
    "category": "master",
    "sounds": []
  },
  "assassins_creed_4": {
    "category": "master",
    "sounds": []
  },
  "player_enters_paris": {
    "category": "master",
    "sounds": []
  },
  "italy_player_enters": {
    "category": "master",
    "sounds": []
  },
  "its_a_me_mario": {
    "category": "master",
    "sounds": []
  },
  "assassins_creed_2_ezios_family": {
    "category": "master",
    "sounds": []
  }
}