{
  "_fv": 18,
  "_type": "gun",
  "definition": {
    "renderType": 1,
    "texture": "pistol",
    "customModelName": "pistol_flintnock:default",
    "name": "Flint Pistol",
    "specialInfo": [],
    "creativeTab": {
      "value": "COMBAT"
    },
    "stackSize": 1,
    "ammoItem": {
      "value": "CUSTOM:FlintBullet"
    },
    "shootConstantly": false,
    "usageCount": 0,
    "actionSound": {
      "value": "entity.arrow.shoot"
    },
    "hasGlow": false,
    "animation": "bow",
    "enableMeleeDamage": false,
    "damageVsEntity": 0.0,
    "onRangedItemUsed": {
      "name": "FlintPistolRangedItemUsed"
    },
    "bulletPower": 2.5,
    "bulletDamage": 5.0,
    "bulletKnockback": 5,
    "bulletParticles": true,
    "bulletIgnitesFire": false,
    "bulletItemTexture": {
      "value": "CUSTOM:FlintBullet"
    },
    "bulletModel": "Default",
    "customBulletModelTexture": ""
  }
}