{
  "_fv": 18,
  "_type": "procedure",
  "definition": {
    "procedurexml": "<xml xmlns=\"https://developers.google.com/blockly/xml\"><block type=\"event_trigger\" deletable=\"false\" x=\"40\" y=\"40\"><field name=\"trigger\">no_ext_trigger</field><next><block type=\"item_cooldown_for\"><value name=\"item\"><block type=\"itemstack_to_mcitem\"></block></value><value name=\"ticks\"><block type=\"math_number\"><field name=\"NUM\">35</field></block></value><value name=\"entity\"><block type=\"entity_from_deps\"></block></value></block></next></block></xml>"
  }
}