{
  "_fv": 18,
  "_type": "procedure",
  "definition": {
    "procedurexml": "<xml xmlns=\"https://developers.google.com/blockly/xml\"><block type=\"event_trigger\" deletable=\"false\" x=\"40\" y=\"40\"><field name=\"trigger\">no_ext_trigger</field><next><block type=\"controls_if\"><value name=\"IF0\"><block type=\"logic_binary_ops\" inline=\"false\"><field name=\"OP\">AND</field><value name=\"A\"><block type=\"math_binary_ops\"><field name=\"OP\">LT</field><comment pinned=\"false\" h=\"67\" w=\"226\">This tests if the output slot has less than 64 items in it if it's true than it will run the rest of the conditions.</comment><value name=\"A\"><block type=\"block_inv_get_amount_inslot\"><value name=\"slotid\"><block type=\"math_number\"><field name=\"NUM\">9</field></block></value><value name=\"x\"><block type=\"coord_x\"></block></value><value name=\"y\"><block type=\"coord_y\"></block></value><value name=\"z\"><block type=\"coord_z\"></block></value></block></value><value name=\"B\"><block type=\"math_number\"><field name=\"NUM\">64</field></block></value></block></value><value name=\"B\"><block type=\"logic_binary_ops\" inline=\"false\"><field name=\"OP\">AND</field><value name=\"A\"><block type=\"logic_binary_ops\" inline=\"false\"><field name=\"OP\">AND</field><comment pinned=\"false\" h=\"68\" w=\"148\">All of these procedure blocks test for items in the crafting grid slots.</comment><value name=\"A\"><block type=\"compare_mcitems\"><value name=\"a\"><block type=\"block_inv_get_item_inslot\"><value name=\"slotid\"><block type=\"math_number\"><field name=\"NUM\">0</field></block></value><value name=\"x\"><block type=\"coord_x\"></block></value><value name=\"y\"><block type=\"coord_y\"></block></value><value name=\"z\"><block type=\"coord_z\"></block></value></block></value><value name=\"b\"><block type=\"mcitem_all\"><field name=\"value\">Items.DIAMOND</field></block></value></block></value><value name=\"B\"><block type=\"logic_binary_ops\" inline=\"false\"><field name=\"OP\">AND</field><value name=\"A\"><block type=\"compare_mcitems\"><value name=\"a\"><block type=\"block_inv_get_item_inslot\"><value name=\"slotid\"><block type=\"math_number\"><field name=\"NUM\">1</field></block></value><value name=\"x\"><block type=\"coord_x\"></block></value><value name=\"y\"><block type=\"coord_y\"></block></value><value name=\"z\"><block type=\"coord_z\"></block></value></block></value><value name=\"b\"><block type=\"mcitem_all\"><field name=\"value\">Blocks.AIR</field></block></value></block></value><value name=\"B\"><block type=\"logic_binary_ops\" inline=\"false\"><field name=\"OP\">AND</field><value name=\"A\"><block type=\"compare_mcitems\"><value name=\"a\"><block type=\"block_inv_get_item_inslot\"><value name=\"slotid\"><block type=\"math_number\"><field name=\"NUM\">2</field></block></value><value name=\"x\"><block type=\"coord_x\"></block></value><value name=\"y\"><block type=\"coord_y\"></block></value><value name=\"z\"><block type=\"coord_z\"></block></value></block></value><value name=\"b\"><block type=\"mcitem_all\"><field name=\"value\">Items.DIAMOND</field></block></value></block></value><value name=\"B\"><block type=\"logic_binary_ops\" inline=\"false\"><field name=\"OP\">AND</field><value name=\"A\"><block type=\"compare_mcitems\"><value name=\"a\"><block type=\"block_inv_get_item_inslot\"><value name=\"slotid\"><block type=\"math_number\"><field name=\"NUM\">3</field></block></value><value name=\"x\"><block type=\"coord_x\"></block></value><value name=\"y\"><block type=\"coord_y\"></block></value><value name=\"z\"><block type=\"coord_z\"></block></value></block></value><value name=\"b\"><block type=\"mcitem_all\"><field name=\"value\">Items.DIAMOND</field></block></value></block></value><value name=\"B\"><block type=\"logic_binary_ops\" inline=\"false\"><field name=\"OP\">AND</field><value name=\"A\"><block type=\"compare_mcitems\"><value name=\"a\"><block type=\"block_inv_get_item_inslot\"><value name=\"slotid\"><block type=\"math_number\"><field name=\"NUM\">4</field></block></value><value name=\"x\"><block type=\"coord_x\"></block></value><value name=\"y\"><block type=\"coord_y\"></block></value><value name=\"z\"><block type=\"coord_z\"></block></value></block></value><value name=\"b\"><block type=\"mcitem_all\"><field name=\"value\">Items.DIAMOND</field></block></value></block></value><value name=\"B\"><block type=\"logic_binary_ops\" inline=\"false\"><field name=\"OP\">AND</field><value name=\"A\"><block type=\"compare_mcitems\"><value name=\"a\"><block type=\"block_inv_get_item_inslot\"><value name=\"slotid\"><block type=\"math_number\"><field name=\"NUM\">5</field></block></value><value name=\"x\"><block type=\"coord_x\"></block></value><value name=\"y\"><block type=\"coord_y\"></block></value><value name=\"z\"><block type=\"coord_z\"></block></value></block></value><value name=\"b\"><block type=\"mcitem_all\"><field name=\"value\">Items.DIAMOND</field></block></value></block></value><value name=\"B\"><block type=\"logic_binary_ops\" inline=\"false\"><field name=\"OP\">AND</field><value name=\"A\"><block type=\"compare_mcitems\"><value name=\"a\"><block type=\"block_inv_get_item_inslot\"><value name=\"slotid\"><block type=\"math_number\"><field name=\"NUM\">6</field></block></value><value name=\"x\"><block type=\"coord_x\"></block></value><value name=\"y\"><block type=\"coord_y\"></block></value><value name=\"z\"><block type=\"coord_z\"></block></value></block></value><value name=\"b\"><block type=\"mcitem_all\"><field name=\"value\">Items.DIAMOND</field></block></value></block></value><value name=\"B\"><block type=\"logic_binary_ops\" inline=\"false\"><field name=\"OP\">AND</field><value name=\"A\"><block type=\"compare_mcitems\"><value name=\"a\"><block type=\"block_inv_get_item_inslot\"><value name=\"slotid\"><block type=\"math_number\"><field name=\"NUM\">7</field></block></value><value name=\"x\"><block type=\"coord_x\"></block></value><value name=\"y\"><block type=\"coord_y\"></block></value><value name=\"z\"><block type=\"coord_z\"></block></value></block></value><value name=\"b\"><block type=\"mcitem_all\"><field name=\"value\">Items.DIAMOND</field></block></value></block></value><value name=\"B\"><block type=\"compare_mcitems\"><value name=\"a\"><block type=\"block_inv_get_item_inslot\"><value name=\"slotid\"><block type=\"math_number\"><field name=\"NUM\">8</field></block></value><value name=\"x\"><block type=\"coord_x\"></block></value><value name=\"y\"><block type=\"coord_y\"></block></value><value name=\"z\"><block type=\"coord_z\"></block></value></block></value><value name=\"b\"><block type=\"mcitem_all\"><field name=\"value\">Items.DIAMOND</field></block></value></block></value></block></value></block></value></block></value></block></value></block></value></block></value></block></value></block></value><value name=\"B\"><block type=\"logic_binary_ops\" inline=\"false\"><field name=\"OP\">OR</field><comment pinned=\"false\" h=\"68\" w=\"179\">This tests if there is an item in the crafting grid or if there is an empty slot.</comment><value name=\"A\"><block type=\"logic_binary_ops\" inline=\"false\"><field name=\"OP\">AND</field><comment pinned=\"false\" h=\"86\" w=\"405\">This tests if the item is the same as what is being crafted and if the stack amount is equal to or less than 63. Subtract the number of items you are placing in the slot from 64, and you will get the value you need to set amount to.</comment><value name=\"A\"><block type=\"math_binary_ops\"><field name=\"OP\">LTE</field><value name=\"A\"><block type=\"block_inv_get_amount_inslot\"><value name=\"slotid\"><block type=\"math_number\"><field name=\"NUM\">9</field></block></value><value name=\"x\"><block type=\"coord_x\"></block></value><value name=\"y\"><block type=\"coord_y\"></block></value><value name=\"z\"><block type=\"coord_z\"></block></value></block></value><value name=\"B\"><block type=\"math_number\"><field name=\"NUM\">63</field></block></value></block></value><value name=\"B\"><block type=\"compare_mcitems\"><value name=\"a\"><block type=\"block_inv_get_item_inslot\"><value name=\"slotid\"><block type=\"math_number\"><field name=\"NUM\">9</field></block></value><value name=\"x\"><block type=\"coord_x\"></block></value><value name=\"y\"><block type=\"coord_y\"></block></value><value name=\"z\"><block type=\"coord_z\"></block></value></block></value><value name=\"b\"><block type=\"mcitem_all\"><field name=\"value\">Items.DIAMOND_CHESTPLATE</field></block></value></block></value></block></value><value name=\"B\"><block type=\"compare_mcitems\"><comment pinned=\"false\" h=\"52\" w=\"151\">This needs to be set to an air block.</comment><value name=\"a\"><block type=\"block_inv_get_item_inslot\"><value name=\"slotid\"><block type=\"math_number\"><field name=\"NUM\">9</field></block></value><value name=\"x\"><block type=\"coord_x\"></block></value><value name=\"y\"><block type=\"coord_y\"></block></value><value name=\"z\"><block type=\"coord_z\"></block></value></block></value><value name=\"b\"><block type=\"mcitem_all\"><field name=\"value\">Blocks.AIR</field></block></value></block></value></block></value></block></value></block></value><statement name=\"DO0\"><block type=\"block_inv_remove_items\"><comment pinned=\"false\" h=\"68\" w=\"222\">These procedure blocks remove one item from all crafting grid slots except for the output slot.</comment><value name=\"amount\"><block type=\"math_number\"><field name=\"NUM\">1</field></block></value><value name=\"slotid\"><block type=\"math_number\"><field name=\"NUM\">0</field></block></value><value name=\"x\"><block type=\"coord_x\"></block></value><value name=\"y\"><block type=\"coord_y\"></block></value><value name=\"z\"><block type=\"coord_z\"></block></value><next><block type=\"block_inv_remove_items\"><value name=\"amount\"><block type=\"math_number\"><field name=\"NUM\">1</field></block></value><value name=\"slotid\"><block type=\"math_number\"><field name=\"NUM\">1</field></block></value><value name=\"x\"><block type=\"coord_x\"></block></value><value name=\"y\"><block type=\"coord_y\"></block></value><value name=\"z\"><block type=\"coord_z\"></block></value><next><block type=\"block_inv_remove_items\"><value name=\"amount\"><block type=\"math_number\"><field name=\"NUM\">1</field></block></value><value name=\"slotid\"><block type=\"math_number\"><field name=\"NUM\">2</field></block></value><value name=\"x\"><block type=\"coord_x\"></block></value><value name=\"y\"><block type=\"coord_y\"></block></value><value name=\"z\"><block type=\"coord_z\"></block></value><next><block type=\"block_inv_remove_items\"><value name=\"amount\"><block type=\"math_number\"><field name=\"NUM\">1</field></block></value><value name=\"slotid\"><block type=\"math_number\"><field name=\"NUM\">3</field></block></value><value name=\"x\"><block type=\"coord_x\"></block></value><value name=\"y\"><block type=\"coord_y\"></block></value><value name=\"z\"><block type=\"coord_z\"></block></value><next><block type=\"block_inv_remove_items\"><value name=\"amount\"><block type=\"math_number\"><field name=\"NUM\">1</field></block></value><value name=\"slotid\"><block type=\"math_number\"><field name=\"NUM\">4</field></block></value><value name=\"x\"><block type=\"coord_x\"></block></value><value name=\"y\"><block type=\"coord_y\"></block></value><value name=\"z\"><block type=\"coord_z\"></block></value><next><block type=\"block_inv_remove_items\"><value name=\"amount\"><block type=\"math_number\"><field name=\"NUM\">1</field></block></value><value name=\"slotid\"><block type=\"math_number\"><field name=\"NUM\">5</field></block></value><value name=\"x\"><block type=\"coord_x\"></block></value><value name=\"y\"><block type=\"coord_y\"></block></value><value name=\"z\"><block type=\"coord_z\"></block></value><next><block type=\"block_inv_remove_items\"><value name=\"amount\"><block type=\"math_number\"><field name=\"NUM\">1</field></block></value><value name=\"slotid\"><block type=\"math_number\"><field name=\"NUM\">6</field></block></value><value name=\"x\"><block type=\"coord_x\"></block></value><value name=\"y\"><block type=\"coord_y\"></block></value><value name=\"z\"><block type=\"coord_z\"></block></value><next><block type=\"block_inv_remove_items\"><value name=\"amount\"><block type=\"math_number\"><field name=\"NUM\">1</field></block></value><value name=\"slotid\"><block type=\"math_number\"><field name=\"NUM\">7</field></block></value><value name=\"x\"><block type=\"coord_x\"></block></value><value name=\"y\"><block type=\"coord_y\"></block></value><value name=\"z\"><block type=\"coord_z\"></block></value><next><block type=\"block_inv_remove_items\"><value name=\"amount\"><block type=\"math_number\"><field name=\"NUM\">1</field></block></value><value name=\"slotid\"><block type=\"math_number\"><field name=\"NUM\">8</field></block></value><value name=\"x\"><block type=\"coord_x\"></block></value><value name=\"y\"><block type=\"coord_y\"></block></value><value name=\"z\"><block type=\"coord_z\"></block></value><next><block type=\"block_inv_set_items\"><comment pinned=\"false\" h=\"69\" w=\"351\">This gets the number from the output slot then adds the amount to the output slot. This item should be the crafted item. Note that +1 is the amount you are crafting.</comment><value name=\"amount\"><block type=\"math_dual_ops\"><field name=\"OP\">ADD</field><value name=\"A\"><block type=\"block_inv_get_amount_inslot\"><value name=\"slotid\"><block type=\"math_number\"><field name=\"NUM\">9</field></block></value><value name=\"x\"><block type=\"coord_x\"></block></value><value name=\"y\"><block type=\"coord_y\"></block></value><value name=\"z\"><block type=\"coord_z\"></block></value></block></value><value name=\"B\"><block type=\"math_number\"><field name=\"NUM\">1</field></block></value></block></value><value name=\"item\"><block type=\"mcitem_all\"><field name=\"value\">Items.DIAMOND_CHESTPLATE</field></block></value><value name=\"slotid\"><block type=\"math_number\"><field name=\"NUM\">9</field></block></value><value name=\"x\"><block type=\"coord_x\"></block></value><value name=\"y\"><block type=\"coord_y\"></block></value><value name=\"z\"><block type=\"coord_z\"></block></value></block></next></block></next></block></next></block></next></block></next></block></next></block></next></block></next></block></next></block></statement><next><block type=\"controls_if\"><value name=\"IF0\"><block type=\"logic_binary_ops\" inline=\"false\"><field name=\"OP\">AND</field><value name=\"A\"><block type=\"math_binary_ops\"><field name=\"OP\">LT</field><comment pinned=\"false\" h=\"67\" w=\"226\">This tests if the output slot has less than 64 items in it if it's true than it will run the rest of the conditions.</comment><value name=\"A\"><block type=\"block_inv_get_amount_inslot\"><value name=\"slotid\"><block type=\"math_number\"><field name=\"NUM\">9</field></block></value><value name=\"x\"><block type=\"coord_x\"></block></value><value name=\"y\"><block type=\"coord_y\"></block></value><value name=\"z\"><block type=\"coord_z\"></block></value></block></value><value name=\"B\"><block type=\"math_number\"><field name=\"NUM\">64</field></block></value></block></value><value name=\"B\"><block type=\"logic_binary_ops\" inline=\"false\"><field name=\"OP\">AND</field><value name=\"A\"><block type=\"logic_binary_ops\" inline=\"false\"><field name=\"OP\">AND</field><comment pinned=\"false\" h=\"68\" w=\"148\">All of these procedure blocks test for items in the crafting grid slots.</comment><value name=\"A\"><block type=\"compare_mcitems\"><value name=\"a\"><block type=\"block_inv_get_item_inslot\"><value name=\"slotid\"><block type=\"math_number\"><field name=\"NUM\">0</field></block></value><value name=\"x\"><block type=\"coord_x\"></block></value><value name=\"y\"><block type=\"coord_y\"></block></value><value name=\"z\"><block type=\"coord_z\"></block></value></block></value><value name=\"b\"><block type=\"mcitem_all\"><field name=\"value\">Items.DIAMOND</field></block></value></block></value><value name=\"B\"><block type=\"logic_binary_ops\" inline=\"false\"><field name=\"OP\">AND</field><value name=\"A\"><block type=\"compare_mcitems\"><value name=\"a\"><block type=\"block_inv_get_item_inslot\"><value name=\"slotid\"><block type=\"math_number\"><field name=\"NUM\">1</field></block></value><value name=\"x\"><block type=\"coord_x\"></block></value><value name=\"y\"><block type=\"coord_y\"></block></value><value name=\"z\"><block type=\"coord_z\"></block></value></block></value><value name=\"b\"><block type=\"mcitem_all\"><field name=\"value\">Items.DIAMOND</field></block></value></block></value><value name=\"B\"><block type=\"logic_binary_ops\" inline=\"false\"><field name=\"OP\">AND</field><value name=\"A\"><block type=\"compare_mcitems\"><value name=\"a\"><block type=\"block_inv_get_item_inslot\"><value name=\"slotid\"><block type=\"math_number\"><field name=\"NUM\">2</field></block></value><value name=\"x\"><block type=\"coord_x\"></block></value><value name=\"y\"><block type=\"coord_y\"></block></value><value name=\"z\"><block type=\"coord_z\"></block></value></block></value><value name=\"b\"><block type=\"mcitem_all\"><field name=\"value\">Items.DIAMOND</field></block></value></block></value><value name=\"B\"><block type=\"logic_binary_ops\" inline=\"false\"><field name=\"OP\">AND</field><value name=\"A\"><block type=\"compare_mcitems\"><value name=\"a\"><block type=\"block_inv_get_item_inslot\"><value name=\"slotid\"><block type=\"math_number\"><field name=\"NUM\">3</field></block></value><value name=\"x\"><block type=\"coord_x\"></block></value><value name=\"y\"><block type=\"coord_y\"></block></value><value name=\"z\"><block type=\"coord_z\"></block></value></block></value><value name=\"b\"><block type=\"mcitem_all\"><field name=\"value\">Items.DIAMOND</field></block></value></block></value><value name=\"B\"><block type=\"logic_binary_ops\" inline=\"false\"><field name=\"OP\">AND</field><value name=\"A\"><block type=\"compare_mcitems\"><value name=\"a\"><block type=\"block_inv_get_item_inslot\"><value name=\"slotid\"><block type=\"math_number\"><field name=\"NUM\">4</field></block></value><value name=\"x\"><block type=\"coord_x\"></block></value><value name=\"y\"><block type=\"coord_y\"></block></value><value name=\"z\"><block type=\"coord_z\"></block></value></block></value><value name=\"b\"><block type=\"mcitem_all\"><field name=\"value\">Items.DIAMOND</field></block></value></block></value><value name=\"B\"><block type=\"logic_binary_ops\" inline=\"false\"><field name=\"OP\">AND</field><value name=\"A\"><block type=\"compare_mcitems\"><value name=\"a\"><block type=\"block_inv_get_item_inslot\"><value name=\"slotid\"><block type=\"math_number\"><field name=\"NUM\">5</field></block></value><value name=\"x\"><block type=\"coord_x\"></block></value><value name=\"y\"><block type=\"coord_y\"></block></value><value name=\"z\"><block type=\"coord_z\"></block></value></block></value><value name=\"b\"><block type=\"mcitem_all\"><field name=\"value\">Items.DIAMOND</field></block></value></block></value><value name=\"B\"><block type=\"logic_binary_ops\" inline=\"false\"><field name=\"OP\">AND</field><value name=\"A\"><block type=\"compare_mcitems\"><value name=\"a\"><block type=\"block_inv_get_item_inslot\"><value name=\"slotid\"><block type=\"math_number\"><field name=\"NUM\">6</field></block></value><value name=\"x\"><block type=\"coord_x\"></block></value><value name=\"y\"><block type=\"coord_y\"></block></value><value name=\"z\"><block type=\"coord_z\"></block></value></block></value><value name=\"b\"><block type=\"mcitem_all\"><field name=\"value\">Items.DIAMOND</field></block></value></block></value><value name=\"B\"><block type=\"logic_binary_ops\" inline=\"false\"><field name=\"OP\">AND</field><value name=\"A\"><block type=\"compare_mcitems\"><value name=\"a\"><block type=\"block_inv_get_item_inslot\"><value name=\"slotid\"><block type=\"math_number\"><field name=\"NUM\">7</field></block></value><value name=\"x\"><block type=\"coord_x\"></block></value><value name=\"y\"><block type=\"coord_y\"></block></value><value name=\"z\"><block type=\"coord_z\"></block></value></block></value><value name=\"b\"><block type=\"mcitem_all\"><field name=\"value\">Items.DIAMOND</field></block></value></block></value><value name=\"B\"><block type=\"compare_mcitems\"><value name=\"a\"><block type=\"block_inv_get_item_inslot\"><value name=\"slotid\"><block type=\"math_number\"><field name=\"NUM\">8</field></block></value><value name=\"x\"><block type=\"coord_x\"></block></value><value name=\"y\"><block type=\"coord_y\"></block></value><value name=\"z\"><block type=\"coord_z\"></block></value></block></value><value name=\"b\"><block type=\"mcitem_all\"><field name=\"value\">Items.DIAMOND</field></block></value></block></value></block></value></block></value></block></value></block></value></block></value></block></value></block></value></block></value><value name=\"B\"><block type=\"logic_binary_ops\" inline=\"false\"><field name=\"OP\">OR</field><comment pinned=\"false\" h=\"68\" w=\"179\">This tests if there is an item in the crafting grid or if there is an empty slot.</comment><value name=\"A\"><block type=\"logic_binary_ops\" inline=\"false\"><field name=\"OP\">AND</field><comment pinned=\"false\" h=\"86\" w=\"405\">This tests if the item is the same as what is being crafted and if the stack amount is equal to or less than 63. Subtract the number of items you are placing in the slot from 64, and you will get the value you need to set amount to.</comment><value name=\"A\"><block type=\"math_binary_ops\"><field name=\"OP\">LTE</field><value name=\"A\"><block type=\"block_inv_get_amount_inslot\"><value name=\"slotid\"><block type=\"math_number\"><field name=\"NUM\">9</field></block></value><value name=\"x\"><block type=\"coord_x\"></block></value><value name=\"y\"><block type=\"coord_y\"></block></value><value name=\"z\"><block type=\"coord_z\"></block></value></block></value><value name=\"B\"><block type=\"math_number\"><field name=\"NUM\">63</field></block></value></block></value><value name=\"B\"><block type=\"compare_mcitems\"><value name=\"a\"><block type=\"block_inv_get_item_inslot\"><value name=\"slotid\"><block type=\"math_number\"><field name=\"NUM\">9</field></block></value><value name=\"x\"><block type=\"coord_x\"></block></value><value name=\"y\"><block type=\"coord_y\"></block></value><value name=\"z\"><block type=\"coord_z\"></block></value></block></value><value name=\"b\"><block type=\"mcitem_all\"><field name=\"value\">Blocks.DIAMOND_BLOCK</field></block></value></block></value></block></value><value name=\"B\"><block type=\"compare_mcitems\"><comment pinned=\"false\" h=\"52\" w=\"151\">This needs to be set to an air block.</comment><value name=\"a\"><block type=\"block_inv_get_item_inslot\"><value name=\"slotid\"><block type=\"math_number\"><field name=\"NUM\">9</field></block></value><value name=\"x\"><block type=\"coord_x\"></block></value><value name=\"y\"><block type=\"coord_y\"></block></value><value name=\"z\"><block type=\"coord_z\"></block></value></block></value><value name=\"b\"><block type=\"mcitem_all\"><field name=\"value\">Blocks.AIR</field></block></value></block></value></block></value></block></value></block></value><statement name=\"DO0\"><block type=\"block_inv_remove_items\"><comment pinned=\"false\" h=\"68\" w=\"222\">These procedure blocks remove one item from all crafting grid slots except for the output slot.</comment><value name=\"amount\"><block type=\"math_number\"><field name=\"NUM\">1</field></block></value><value name=\"slotid\"><block type=\"math_number\"><field name=\"NUM\">0</field></block></value><value name=\"x\"><block type=\"coord_x\"></block></value><value name=\"y\"><block type=\"coord_y\"></block></value><value name=\"z\"><block type=\"coord_z\"></block></value><next><block type=\"block_inv_remove_items\"><value name=\"amount\"><block type=\"math_number\"><field name=\"NUM\">1</field></block></value><value name=\"slotid\"><block type=\"math_number\"><field name=\"NUM\">1</field></block></value><value name=\"x\"><block type=\"coord_x\"></block></value><value name=\"y\"><block type=\"coord_y\"></block></value><value name=\"z\"><block type=\"coord_z\"></block></value><next><block type=\"block_inv_remove_items\"><value name=\"amount\"><block type=\"math_number\"><field name=\"NUM\">1</field></block></value><value name=\"slotid\"><block type=\"math_number\"><field name=\"NUM\">2</field></block></value><value name=\"x\"><block type=\"coord_x\"></block></value><value name=\"y\"><block type=\"coord_y\"></block></value><value name=\"z\"><block type=\"coord_z\"></block></value><next><block type=\"block_inv_remove_items\"><value name=\"amount\"><block type=\"math_number\"><field name=\"NUM\">1</field></block></value><value name=\"slotid\"><block type=\"math_number\"><field name=\"NUM\">3</field></block></value><value name=\"x\"><block type=\"coord_x\"></block></value><value name=\"y\"><block type=\"coord_y\"></block></value><value name=\"z\"><block type=\"coord_z\"></block></value><next><block type=\"block_inv_remove_items\"><value name=\"amount\"><block type=\"math_number\"><field name=\"NUM\">1</field></block></value><value name=\"slotid\"><block type=\"math_number\"><field name=\"NUM\">4</field></block></value><value name=\"x\"><block type=\"coord_x\"></block></value><value name=\"y\"><block type=\"coord_y\"></block></value><value name=\"z\"><block type=\"coord_z\"></block></value><next><block type=\"block_inv_remove_items\"><value name=\"amount\"><block type=\"math_number\"><field name=\"NUM\">1</field></block></value><value name=\"slotid\"><block type=\"math_number\"><field name=\"NUM\">5</field></block></value><value name=\"x\"><block type=\"coord_x\"></block></value><value name=\"y\"><block type=\"coord_y\"></block></value><value name=\"z\"><block type=\"coord_z\"></block></value><next><block type=\"block_inv_remove_items\"><value name=\"amount\"><block type=\"math_number\"><field name=\"NUM\">1</field></block></value><value name=\"slotid\"><block type=\"math_number\"><field name=\"NUM\">6</field></block></value><value name=\"x\"><block type=\"coord_x\"></block></value><value name=\"y\"><block type=\"coord_y\"></block></value><value name=\"z\"><block type=\"coord_z\"></block></value><next><block type=\"block_inv_remove_items\"><value name=\"amount\"><block type=\"math_number\"><field name=\"NUM\">1</field></block></value><value name=\"slotid\"><block type=\"math_number\"><field name=\"NUM\">7</field></block></value><value name=\"x\"><block type=\"coord_x\"></block></value><value name=\"y\"><block type=\"coord_y\"></block></value><value name=\"z\"><block type=\"coord_z\"></block></value><next><block type=\"block_inv_remove_items\"><value name=\"amount\"><block type=\"math_number\"><field name=\"NUM\">1</field></block></value><value name=\"slotid\"><block type=\"math_number\"><field name=\"NUM\">8</field></block></value><value name=\"x\"><block type=\"coord_x\"></block></value><value name=\"y\"><block type=\"coord_y\"></block></value><value name=\"z\"><block type=\"coord_z\"></block></value><next><block type=\"block_inv_set_items\"><comment pinned=\"false\" h=\"69\" w=\"351\">This gets the number from the output slot then adds the amount to the output slot. This item should be the crafted item. Note that +1 is the amount you are crafting.</comment><value name=\"amount\"><block type=\"math_dual_ops\"><field name=\"OP\">ADD</field><value name=\"A\"><block type=\"block_inv_get_amount_inslot\"><value name=\"slotid\"><block type=\"math_number\"><field name=\"NUM\">9</field></block></value><value name=\"x\"><block type=\"coord_x\"></block></value><value name=\"y\"><block type=\"coord_y\"></block></value><value name=\"z\"><block type=\"coord_z\"></block></value></block></value><value name=\"B\"><block type=\"math_number\"><field name=\"NUM\">1</field></block></value></block></value><value name=\"item\"><block type=\"mcitem_all\"><field name=\"value\">Blocks.DIAMOND_BLOCK</field></block></value><value name=\"slotid\"><block type=\"math_number\"><field name=\"NUM\">9</field></block></value><value name=\"x\"><block type=\"coord_x\"></block></value><value name=\"y\"><block type=\"coord_y\"></block></value><value name=\"z\"><block type=\"coord_z\"></block></value></block></next></block></next></block></next></block></next></block></next></block></next></block></next></block></next></block></next></block></statement></block></next></block></next></block></xml>"
  }
}