{
  "_fv": 18,
  "_type": "gun",
  "definition": {
    "renderType": 1,
    "texture": "phantombladefcm",
    "customModelName": "phantom_activada:default",
    "name": "Phantom Blade A",
    "specialInfo": [],
    "creativeTab": {
      "value": "CUSTOM:AssassinWeapons"
    },
    "stackSize": 1,
    "ammoItem": {
      "value": "CUSTOM:PhantomDart"
    },
    "shootConstantly": false,
    "usageCount": 0,
    "actionSound": {
      "value": "entity.arrow.shoot"
    },
    "hasGlow": false,
    "animation": "crossbow",
    "enableMeleeDamage": true,
    "damageVsEntity": 25.0,
    "onRangedItemUsed": {
      "name": "PhantomBladeARangedItemUsed"
    },
    "bulletPower": 1.0,
    "bulletDamage": 3.5,
    "bulletKnockback": 1,
    "bulletParticles": true,
    "bulletIgnitesFire": false,
    "bulletItemTexture": {
      "value": "CUSTOM:PhantomDart"
    },
    "bulletModel": "Default",
    "customBulletModelTexture": ""
  }
}