{
  "_fv": 18,
  "_type": "item",
  "definition": {
    "renderType": 1,
    "texture": "phantombladesm",
    "customModelName": "phantom_desactivada:default",
    "name": "Phantom Blade",
    "rarity": "COMMON",
    "creativeTab": {
      "value": "CUSTOM:AssassinWeapons"
    },
    "stackSize": 1,
    "enchantability": 0,
    "useDuration": 0,
    "toolType": 1.0,
    "damageCount": 0,
    "recipeRemainder": {
      "value": ""
    },
    "destroyAnyBlock": false,
    "immuneToFire": false,
    "stayInGridWhenCrafting": false,
    "damageOnCrafting": false,
    "enableMeleeDamage": true,
    "damageVsEntity": 3.0,
    "specialInfo": [],
    "hasGlow": false,
    "guiBoundTo": "<NONE>",
    "inventorySize": 9,
    "inventoryStackSize": 64,
    "onRightClickedInAir": {
      "name": "PhantomRigthclickedAIR"
    }
  }
}